{
    "relationships": [],
    "fields": [
        {
            "fieldId": 1,
            "fieldName": "source",
            "fieldType": "String",
            "fieldValidateRules": [
                "required"
            ]
        },
        {
            "fieldId": 2,
            "fieldName": "dest",
            "fieldType": "String",
            "fieldValidateRules": [
                "required"
            ]
        },
        {
            "fieldId": 3,
            "fieldName": "amount",
            "fieldType": "BigDecimal",
            "fieldValidateRules": [
                "required"
            ]
        },
        {
            "fieldId": 4,
            "fieldName": "date",
            "fieldType": "LocalDate",
            "fieldValidateRules": [
                "required"
            ]
        },
        {
            "fieldId": 5,
            "fieldName": "subGroup",
            "fieldType": "String",
            "fieldValidateRules": [
                "required"
            ]
        },
        {
            "fieldId": 5,
            "fieldName": "comment",
            "fieldType": "String"
        }
    ],
    "changelogDate": "20160312131613",
    "dto": "no",
    "service": "no",
    "pagination": "pagination"
}
